{
  "project_info": {
    "project_number": "625310098806",
    "firebase_url": "https://upload-image-534b8.firebaseio.com",
    "project_id": "upload-image-534b8",
    "storage_bucket": "upload-image-534b8.appspot.com"
  },
  "client": [
    {
      "client_info": {
        "mobilesdk_app_id": "1:625310098806:android:776e49188353a927",
        "android_client_info": {
          "package_name": "com.bestcompany.uploadimageapp"
        }
      },
      "oauth_client": [
        {
          "client_id": "625310098806-66s1d78vajor1ln35qsc3s78gqc85cep.apps.googleusercontent.com",
          "client_type": 1,
          "android_info": {
            "package_name": "com.bestcompany.uploadimageapp",
            "certificate_hash": "a23348dd96b4fe6a8b53cca588dae703d8871a5b"
          }
        },
        {
          "client_id": "625310098806-pd1lf9gfvelgqsqi7fmi7l511c5i941o.apps.googleusercontent.com",
          "client_type": 3
        }
      ],
      "api_key": [
        {
          "current_key": "AIzaSyBhyCzdqQMumC0cjz-fL1pgj5A0d3bV5fA"
        }
      ],
      "services": {
        "analytics_service": {
          "status": 1
        },
        "appinvite_service": {
          "status": 2,
          "other_platform_oauth_client": [
            {
              "client_id": "625310098806-pd1lf9gfvelgqsqi7fmi7l511c5i941o.apps.googleusercontent.com",
              "client_type": 3
            }
          ]
        },
        "ads_service": {
          "status": 2
        }
      }
    }
  ],
  "configuration_version": "1"
}